%!PS-Adobe-3.0 EPSF-3.0
%%Creator: cairo 1.14.2 (http://cairographics.org)
%%CreationDate: Fri Jun  3 14:41:12 2016
%%Pages: 1
%%DocumentData: Clean7Bit
%%LanguageLevel: 2
%%BoundingBox: 6 1 146 148
%%EndComments
%%BeginProlog
save
50 dict begin
/q { gsave } bind def
/Q { grestore } bind def
/cm { 6 array astore concat } bind def
/w { setlinewidth } bind def
/J { setlinecap } bind def
/j { setlinejoin } bind def
/M { setmiterlimit } bind def
/d { setdash } bind def
/m { moveto } bind def
/l { lineto } bind def
/c { curveto } bind def
/h { closepath } bind def
/re { exch dup neg 3 1 roll 5 3 roll moveto 0 rlineto
      0 exch rlineto 0 rlineto closepath } bind def
/S { stroke } bind def
/f { fill } bind def
/f* { eofill } bind def
/n { newpath } bind def
/W { clip } bind def
/W* { eoclip } bind def
/BT { } bind def
/ET { } bind def
/pdfmark where { pop globaldict /?pdfmark /exec load put }
    { globaldict begin /?pdfmark /pop load def /pdfmark
    /cleartomark load def end } ifelse
/BDC { mark 3 1 roll /BDC pdfmark } bind def
/EMC { mark /EMC pdfmark } bind def
/cairo_store_point { /cairo_point_y exch def /cairo_point_x exch def } def
/Tj { show currentpoint cairo_store_point } bind def
/TJ {
  {
    dup
    type /stringtype eq
    { show } { -0.001 mul 0 cairo_font_matrix dtransform rmoveto } ifelse
  } forall
  currentpoint cairo_store_point
} bind def
/cairo_selectfont { cairo_font_matrix aload pop pop pop 0 0 6 array astore
    cairo_font exch selectfont cairo_point_x cairo_point_y moveto } bind def
/Tf { pop /cairo_font exch def /cairo_font_matrix where
      { pop cairo_selectfont } if } bind def
/Td { matrix translate cairo_font_matrix matrix concatmatrix dup
      /cairo_font_matrix exch def dup 4 get exch 5 get cairo_store_point
      /cairo_font where { pop cairo_selectfont } if } bind def
/Tm { 2 copy 8 2 roll 6 array astore /cairo_font_matrix exch def
      cairo_store_point /cairo_font where { pop cairo_selectfont } if } bind def
/g { setgray } bind def
/rg { setrgbcolor } bind def
/d1 { setcachedevice } bind def
%%EndProlog
%%BeginSetup
%%EndSetup
%%Page: 1 1
%%BeginPageSetup
%%PageBoundingBox: 6 1 146 148
%%EndPageSetup
q 6 1 140 147 rectclip q
0 g
0.883856 w
1 J
1 j
[] 0.0 d
10 M q 1 0 0 0.979479 0 150.440002 cm
7.148 -150.51 m 13.652 -153.111 17.555 -143.352 11.047 -140.752 c 7.82 
-139.459 5.887 -144.301 9.113 -145.593 c 17.23 -148.843 22.105 -136.66 13.988
 -133.414 c 10.758 -132.121 8.82 -136.963 12.051 -138.255 c 20.172 -141.505
 25.043 -129.322 16.922 -126.075 c 13.691 -124.783 11.754 -129.625 14.984
 -130.917 c 23.105 -134.163 27.977 -121.984 19.855 -118.737 c 16.625 -117.445
 14.688 -122.287 17.918 -123.583 c 26.039 -126.825 30.91 -114.646 22.789
 -111.395 c 19.562 -110.107 17.625 -114.949 20.855 -116.241 c 28.977 -119.491
 33.848 -107.308 25.727 -104.061 c 22.5 -102.769 20.559 -107.611 23.789 
-108.903 c 31.91 -112.153 36.781 -99.969 28.66 -96.723 c 25.434 -95.431 
23.496 -100.273 26.723 -101.565 c 34.844 -104.815 39.715 -92.631 31.594 
-89.385 c 28.367 -88.093 26.43 -92.938 29.656 -94.227 c 37.777 -97.477 42.652
 -85.297 34.531 -82.047 c 31.305 -80.755 29.367 -85.6 32.594 -86.888 c 39.098
 -89.493 43.004 -79.734 36.496 -77.13 c S Q
q 1 0 0 0.979479 0 150.440002 cm
7.148 -3.749 m 36.496 -77.13 l S Q
17.906 112.811 m 24.578 104.077 l 23.258 114.909 l f
q 1 0 0 0.979479 0 150.440002 cm
36.496 -77.13 m 95.199 -77.13 l S Q
62.52 72.069 m 73.27 74.893 l 62.52 77.717 l f
q 1 0 0 0.979479 0 150.440002 cm
95.199 -77.13 m 124.555 -150.51 l S Q
105.965 40.936 m 112.633 32.206 l 111.316 43.034 l f
q 1 0 0 0.979479 0 150.440002 cm
95.199 -77.13 m 96.668 -73.461 l S Q
q 1 0 0 0.979479 0 150.440002 cm
98.137 -69.796 m 99.602 -66.123 l S Q
q 1 0 0 0.979479 0 150.440002 cm
101.07 -62.453 m 102.539 -58.784 l S Q
q 1 0 0 0.979479 0 150.440002 cm
104.008 -55.115 m 105.473 -51.446 l S Q
q 1 0 0 0.979479 0 150.440002 cm
106.941 -47.777 m 108.406 -44.112 l S Q
q 1 0 0 0.979479 0 150.440002 cm
109.875 -40.439 m 111.344 -36.77 l S Q
q 1 0 0 0.979479 0 150.440002 cm
112.812 -33.101 m 114.281 -29.432 l S Q
q 1 0 0 0.979479 0 150.440002 cm
115.746 -25.767 m 117.215 -22.094 l S Q
q 1 0 0 0.979479 0 150.440002 cm
118.68 -18.429 m 120.148 -14.756 l S Q
q 1 0 0 0.979479 0 150.440002 cm
121.613 -11.087 m 123.086 -7.422 l S Q
111.316 106.749 m 112.633 117.581 l 105.965 108.846 l f
35.309 39.46 m 35.32 39.518 35.336 39.565 35.336 39.624 c 35.336 39.788
 35.062 40.045 34.891 40.045 c 34.801 40.045 34.355 39.819 34.309 39.475
 c 34.664 39.475 l 34.477 39.835 33.973 40.241 33.574 40.241 c 32.469 40.241
 31.07 38.737 31.07 37.354 c 31.07 36.409 31.84 35.686 32.543 35.686 c 33.129
 35.686 33.711 36.182 33.68 36.167 c 33.512 36.331 l 33.312 35.534 33.203
 35.143 33.203 35.116 c 33.16 35.038 33.004 34.245 31.961 34.245 c 31.777
 34.245 31.457 34.256 31.18 34.346 c 31.18 34.034 l 31.469 34.108 31.746
 34.514 31.746 34.678 c 31.746 34.831 31.469 35.174 31.211 35.174 c 30.996
 35.174 30.504 34.842 30.504 34.452 c 30.504 34.061 31.043 33.717 31.977
 33.717 c 33.203 33.717 34.078 34.62 34.234 35.19 c h
33.695 37.069 m 33.633 36.811 33.465 36.694 33.25 36.514 c 33.035 36.331
 32.867 36.213 32.574 36.213 c 32.086 36.213 32.113 36.542 32.113 36.932
 c 32.113 37.401 32.344 38.42 32.605 38.901 c 32.867 39.381 33.176 39.713
 33.59 39.713 c 34.234 39.713 34.203 39.081 34.203 39.038 c 34.203 38.991
 34.172 38.932 34.172 38.901 c h
33.695 37.069 m f
29.734 116.378 m 29.734 116.393 29.566 116.651 29.445 116.651 c 29.23 116.651
 28.508 116.573 28.246 116.545 c 28.172 116.545 27.895 116.366 27.895 116.198
 c 27.895 116.077 28.156 115.928 28.309 115.928 c 28.77 115.928 28.617 116.018
 28.617 115.913 c 28.617 115.854 28.523 115.522 28.477 115.327 c 27.68 112.202
 l 27.559 111.721 27.527 111.569 27.527 111.225 c 27.527 110.323 28.219 
109.569 28.938 109.569 c 30.09 109.569 31.469 111.147 31.469 112.53 c 31.469
 113.405 30.781 114.229 29.996 114.229 c 29.551 114.229 29.016 113.901 28.723
 113.612 c 29.016 113.495 l h
28.816 112.756 m 28.875 112.967 28.832 112.878 28.922 112.983 c 29.398 
113.612 29.719 113.706 29.98 113.706 c 30.336 113.706 30.41 113.569 30.41
 112.952 c 30.41 112.397 30.09 111.284 29.922 110.924 c 29.598 110.276 29.32
 110.096 28.938 110.096 c 28.602 110.096 28.445 110.186 28.445 110.909 c
 28.445 111.088 28.445 111.268 28.602 111.87 c h
28.816 112.756 m f
102.684 40.194 m 102.684 40.21 102.516 40.467 102.391 40.467 c 102.176 
40.467 101.457 40.389 101.195 40.362 c 101.117 40.362 100.844 40.182 100.844
 40.014 c 100.844 39.897 101.102 39.745 101.258 39.745 c 101.719 39.745 
101.562 39.835 101.562 39.729 c 101.562 39.67 101.473 39.338 101.426 39.143
 c 100.629 36.018 l 100.504 35.538 100.473 35.385 100.473 35.042 c 100.473
 34.139 101.164 33.385 101.887 33.385 c 103.035 33.385 104.418 34.963 104.418
 36.346 c 104.418 37.221 103.727 38.045 102.945 38.045 c 102.5 38.045 101.961
 37.717 101.672 37.432 c 101.961 37.311 l h
101.762 36.573 m 101.824 36.784 101.777 36.694 101.871 36.799 c 102.348
 37.432 102.668 37.522 102.93 37.522 c 103.281 37.522 103.359 37.385 103.359
 36.768 c 103.359 36.213 103.035 35.1 102.867 34.741 c 102.547 34.092 102.27
 33.913 101.887 33.913 c 101.547 33.913 101.395 34.003 101.395 34.725 c 
101.395 34.905 101.395 35.085 101.547 35.686 c h
101.762 36.573 m f
118.363 113.03 m 118.363 113.045 118.191 113.303 118.07 113.303 c 117.84
 113.303 117.133 113.225 116.875 113.198 c 116.797 113.198 116.504 113.018
 116.504 112.85 c 116.504 112.729 116.781 112.581 116.918 112.581 c 117.395
 112.581 117.242 112.67 117.242 112.565 c 117.211 112.385 l 115.785 106.854
 l 115.754 106.717 115.754 106.706 115.754 106.643 c 115.754 106.417 116.121
 106.221 116.215 106.221 c 116.367 106.221 116.688 106.495 116.734 106.628
 c 116.918 107.35 l 117.133 108.221 l 117.195 108.432 117.258 108.643 117.305
 108.854 c 117.316 108.913 117.395 109.229 117.41 109.288 c 117.441 109.378
 117.703 109.815 118.023 110.069 c 118.238 110.221 118.422 110.358 118.852
 110.358 c 119.266 110.358 119.207 110.174 119.207 109.846 c 119.207 109.319
 118.836 108.284 118.594 107.698 c 118.516 107.471 118.469 107.35 118.469
 107.17 c 118.469 106.717 118.992 106.221 119.453 106.221 c 120.371 106.221
 120.895 107.772 120.895 107.846 c 120.895 107.952 120.648 108.116 120.617
 108.116 c 120.512 108.116 120.34 107.92 120.297 107.772 c 120.141 107.276
 120.004 106.749 119.465 106.749 c 119.297 106.749 119.406 106.69 119.406
 106.901 c 119.406 107.139 119.48 107.381 119.574 107.592 c 119.727 107.995
 120.172 109.139 120.172 109.694 c 120.172 110.311 119.621 110.881 118.883
 110.881 c 118.27 110.881 117.672 110.538 117.305 110.1 c 117.594 109.979
 l h
118.363 113.03 m f
125.508 113.303 m 125.555 113.436 125.555 113.467 125.555 113.483 c 125.555
 113.588 125.309 113.842 125.199 113.842 c 125.125 113.842 124.922 113.753
 124.863 113.647 c 121.457 104.448 l 121.41 104.331 121.41 104.284 121.41
 104.268 c 121.41 104.163 121.672 103.924 121.777 103.924 c 121.902 103.924
 122.102 104.147 122.16 104.315 c h
125.508 113.303 m f
133.633 112.295 m 133.711 112.639 133.57 112.581 134.277 112.581 c 134.539
 112.581 134.785 112.729 134.785 112.924 c 134.785 113.03 134.508 113.198
 134.477 113.198 c 134.199 113.198 133.496 113.167 133.219 113.167 c 132.941
 113.167 132.25 113.198 131.961 113.198 c 131.883 113.198 131.605 113.03
 131.605 112.835 c 131.605 112.729 131.867 112.581 132.051 112.581 c 132.066
 112.581 132.25 112.581 132.422 112.565 c 132.605 112.534 132.512 112.686
 132.512 112.565 c 132.512 112.522 132.496 112.506 132.465 112.385 c 131.93
 110.206 l 129.273 110.206 l 129.812 112.295 l 129.902 112.639 129.766 112.581
 130.473 112.581 c 130.734 112.581 130.977 112.729 130.977 112.924 c 130.977
 113.03 130.703 113.198 130.672 113.198 c 130.395 113.198 129.688 113.167
 129.414 113.167 c 129.137 113.167 128.445 113.198 128.156 113.198 c 128.078
 113.198 127.785 113.03 127.785 112.835 c 127.785 112.729 128.062 112.581
 128.246 112.581 c 128.262 112.581 128.445 112.581 128.613 112.565 c 128.785
 112.534 128.707 112.686 128.707 112.565 c 128.707 112.522 128.691 112.491
 128.66 112.385 c 127.355 107.229 l 127.25 106.854 127.418 106.944 126.637
 106.944 c 126.469 106.944 126.191 106.78 126.191 106.585 c 126.191 106.479
 126.496 106.327 126.512 106.327 c 126.789 106.327 127.48 106.358 127.754
 106.358 c 127.957 106.358 128.172 106.342 128.387 106.342 c 128.602 106.342
 128.816 106.327 129.016 106.327 c 129.09 106.327 129.383 106.479 129.383
 106.674 c 129.383 106.78 129.121 106.944 128.938 106.944 c 128.57 106.944
 128.461 106.78 128.461 106.944 c 128.461 107.006 128.492 107.049 128.492
 107.108 c 129.121 109.588 l 131.762 109.588 l 131.391 108.147 131.176 107.245
 131.133 107.096 c 131.039 106.795 131.023 106.944 130.41 106.944 c 130.273
 106.944 130.012 106.78 130.012 106.585 c 130.012 106.479 130.305 106.327
 130.32 106.327 c 130.594 106.327 131.285 106.358 131.562 106.358 c 131.762
 106.358 131.977 106.342 132.191 106.342 c 132.406 106.342 132.621 106.327
 132.82 106.327 c 132.895 106.327 133.188 106.479 133.188 106.674 c 133.188
 106.78 132.926 106.944 132.742 106.944 c 132.391 106.944 132.281 106.78
 132.281 106.944 c 132.281 107.006 132.297 107.049 132.312 107.108 c h
133.633 112.295 m f
138.824 113.303 m 138.871 113.436 138.871 113.467 138.871 113.483 c 138.871
 113.588 138.625 113.842 138.516 113.842 c 138.441 113.842 138.242 113.753
 138.18 113.647 c 134.773 104.448 l 134.727 104.331 134.727 104.284 134.727
 104.268 c 134.727 104.163 134.988 103.924 135.094 103.924 c 135.219 103.924
 135.418 104.147 135.477 104.315 c h
138.824 113.303 m f
140.344 107.698 m 139.945 107.049 139.699 106.975 139.27 106.944 c 139.148
 106.928 138.887 106.764 138.887 106.585 c 138.887 106.522 139.117 106.327
 139.195 106.327 c 139.453 106.327 139.762 106.358 140.023 106.358 c 140.359
 106.358 140.699 106.327 141.004 106.327 c 141.066 106.327 141.359 106.479
 141.359 106.659 c 141.359 106.764 141.113 106.944 141.035 106.944 c 140.82
 106.96 140.742 106.87 140.742 107.108 c 140.742 107.229 140.758 107.229
 140.836 107.366 c 141.543 108.538 l 143.766 108.538 l 143.766 108.491 143.906
 107.186 143.906 107.096 c 143.906 106.807 143.566 106.944 143.367 106.944
 c 143.23 106.944 142.953 106.78 142.953 106.585 c 142.953 106.479 143.246
 106.327 143.277 106.327 c 143.676 106.327 144.09 106.358 144.488 106.358
 c 144.734 106.358 145.363 106.327 145.609 106.327 c 145.652 106.327 145.945
 106.479 145.945 106.674 c 145.945 106.78 145.684 106.944 145.547 106.944
 c 144.949 106.944 145.117 106.838 145.086 107.124 c 144.488 113.124 l 144.473
 113.303 144.305 113.514 144.137 113.514 c 143.98 113.514 143.812 113.393
 143.75 113.303 c h
141.758 108.881 m 143.691 112.053 l 143.398 112.159 l 143.707 109.155 l
 141.926 109.155 l h
141.758 108.881 m f
Q Q
showpage
%%Trailer
end restore
%%EOF
