%!PS-Adobe-3.0 EPSF-3.0
%%Creator: cairo 1.14.2 (http://cairographics.org)
%%CreationDate: Fri Jun  3 14:40:30 2016
%%Pages: 1
%%DocumentData: Clean7Bit
%%LanguageLevel: 2
%%BoundingBox: 11 1 144 150
%%EndComments
%%BeginProlog
save
50 dict begin
/q { gsave } bind def
/Q { grestore } bind def
/cm { 6 array astore concat } bind def
/w { setlinewidth } bind def
/J { setlinecap } bind def
/j { setlinejoin } bind def
/M { setmiterlimit } bind def
/d { setdash } bind def
/m { moveto } bind def
/l { lineto } bind def
/c { curveto } bind def
/h { closepath } bind def
/re { exch dup neg 3 1 roll 5 3 roll moveto 0 rlineto
      0 exch rlineto 0 rlineto closepath } bind def
/S { stroke } bind def
/f { fill } bind def
/f* { eofill } bind def
/n { newpath } bind def
/W { clip } bind def
/W* { eoclip } bind def
/BT { } bind def
/ET { } bind def
/pdfmark where { pop globaldict /?pdfmark /exec load put }
    { globaldict begin /?pdfmark /pop load def /pdfmark
    /cleartomark load def end } ifelse
/BDC { mark 3 1 roll /BDC pdfmark } bind def
/EMC { mark /EMC pdfmark } bind def
/cairo_store_point { /cairo_point_y exch def /cairo_point_x exch def } def
/Tj { show currentpoint cairo_store_point } bind def
/TJ {
  {
    dup
    type /stringtype eq
    { show } { -0.001 mul 0 cairo_font_matrix dtransform rmoveto } ifelse
  } forall
  currentpoint cairo_store_point
} bind def
/cairo_selectfont { cairo_font_matrix aload pop pop pop 0 0 6 array astore
    cairo_font exch selectfont cairo_point_x cairo_point_y moveto } bind def
/Tf { pop /cairo_font exch def /cairo_font_matrix where
      { pop cairo_selectfont } if } bind def
/Td { matrix translate cairo_font_matrix matrix concatmatrix dup
      /cairo_font_matrix exch def dup 4 get exch 5 get cairo_store_point
      /cairo_font where { pop cairo_selectfont } if } bind def
/Tm { 2 copy 8 2 roll 6 array astore /cairo_font_matrix exch def
      cairo_store_point /cairo_font where { pop cairo_selectfont } if } bind def
/g { setgray } bind def
/rg { setrgbcolor } bind def
/d1 { setcachedevice } bind def
%%EndProlog
%%BeginSetup
%%EndSetup
%%Page: 1 1
%%BeginPageSetup
%%PageBoundingBox: 11 1 144 150
%%EndPageSetup
q 11 1 133 149 rectclip q
0 g
0.891479 w
1 J
1 j
[] 0.0 d
10 M q 1 0 0 0.983973 0 150.440002 cm
14.137 -149.823 m 20.289 -153.515 25.824 -144.285 19.672 -140.593 c 16.621
 -138.759 13.875 -143.34 16.926 -145.17 c 24.602 -149.779 31.516 -138.263
 23.836 -133.654 c 20.785 -131.824 18.039 -136.401 21.09 -138.235 c 28.766
 -142.84 35.676 -131.323 28 -126.714 c 24.949 -124.884 22.199 -129.462 25.254
 -131.296 c 32.93 -135.901 39.84 -124.384 32.164 -119.779 c 29.109 -117.949
 26.363 -122.526 29.418 -124.356 c 37.094 -128.961 44.004 -117.445 36.328
 -112.84 c 33.273 -111.006 30.527 -115.587 33.578 -117.417 c 41.258 -122.026
 48.168 -110.505 40.492 -105.9 c 37.438 -104.07 34.691 -108.647 37.742 -110.482
 c 45.422 -115.083 52.332 -103.57 44.652 -98.961 c 41.602 -97.131 38.855
 -101.708 41.902 -103.542 c 48.059 -107.23 53.594 -98.004 47.445 -94.312
 c S Q
q 1 0 0 0.983973 0 150.440002 cm
14.137 -1.794 m 7.984 -5.486 13.523 -14.716 19.672 -11.024 c 22.727 -9.194
 19.98 -4.613 16.926 -6.447 c 9.246 -11.052 16.156 -22.569 23.836 -17.96
 c 26.891 -16.13 24.145 -11.552 21.09 -13.382 c 13.41 -17.991 20.32 -29.508
 28 -24.903 c 31.055 -23.069 28.305 -18.492 25.254 -20.322 c 17.574 -24.931
 24.484 -36.447 32.164 -31.842 c 35.215 -30.012 32.469 -25.431 29.418 -27.265
 c 21.734 -31.866 28.648 -43.387 36.328 -38.778 c 39.379 -36.948 36.633 
-32.366 33.578 -34.2 c 25.898 -38.806 32.809 -50.326 40.492 -45.721 c 43.543
 -43.887 40.793 -39.31 37.742 -41.14 c 30.062 -45.745 36.973 -57.265 44.652
 -52.656 c 47.703 -50.822 44.957 -46.245 41.902 -48.075 c 35.754 -51.767
 41.289 -60.997 47.441 -57.305 c S Q
q 1 0 0 0.983973 0 150.440002 cm
47.445 -94.312 m 47.441 -57.305 l S Q
50.348 72.538 m 47.441 83.213 l 44.535 72.538 l f
q 1 0 0 0.983973 0 150.440002 cm
47.441 -57.305 m 80.746 -75.809 l S Q
59.742 84.057 m 70.641 81.374 l 62.57 89.053 l f
q 1 0 0 0.983973 0 150.440002 cm
80.746 -75.809 m 47.445 -94.312 l S Q
65.621 70.85 m 57.551 63.167 l 68.445 65.85 l f
q 1 0 0 0.983973 0 150.440002 cm
80.746 -75.809 m 84.91 -75.809 l S Q
q 1 0 0 0.983973 0 150.440002 cm
89.074 -75.809 m 93.238 -75.809 l S Q
q 1 0 0 0.983973 0 150.440002 cm
97.398 -75.809 m 101.562 -75.809 l S Q
q 1 0 0 0.983973 0 150.440002 cm
105.727 -75.809 m 109.891 -75.809 l S Q
q 1 0 0 0.983973 0 150.440002 cm
114.055 -75.809 m 118.215 -75.809 l S Q
q 1 0 0 0.983973 0 150.440002 cm
122.379 -75.809 m 126.543 -75.809 l S Q
q 1 0 0 0.983973 0 150.440002 cm
130.707 -75.809 m 134.867 -75.809 l S Q
q 1 0 0 0.983973 0 150.440002 cm
139.027 -75.809 m 143.191 -75.809 l S Q
110.691 72.983 m 121.539 75.846 l 110.691 78.706 l f
47.293 26.96 m 47.309 27.022 47.324 27.065 47.324 27.128 c 47.324 27.295
 47.047 27.553 46.875 27.553 c 46.785 27.553 46.336 27.327 46.289 26.975
 c 46.645 26.975 l 46.457 27.338 45.949 27.753 45.547 27.753 c 44.43 27.753
 43.023 26.229 43.023 24.827 c 43.023 23.87 43.797 23.135 44.508 23.135 
c 45.098 23.135 45.684 23.639 45.652 23.624 c 45.484 23.792 l 45.281 22.983
 45.176 22.588 45.176 22.557 c 45.129 22.483 44.973 21.674 43.922 21.674
 c 43.734 21.674 43.41 21.69 43.133 21.78 c 43.133 21.463 l 43.426 21.538
 43.703 21.948 43.703 22.116 c 43.703 22.268 43.426 22.62 43.16 22.62 c 
42.945 22.62 42.449 22.284 42.449 21.889 c 42.449 21.491 42.992 21.143 43.938
 21.143 c 45.176 21.143 46.055 22.057 46.211 22.635 c h
45.668 24.538 m 45.605 24.28 45.438 24.159 45.219 23.975 c 45.004 23.792
 44.832 23.67 44.539 23.67 c 44.043 23.67 44.074 24.006 44.074 24.401 c 
44.074 24.874 44.309 25.909 44.57 26.397 c 44.832 26.881 45.145 27.217 45.562
 27.217 c 46.211 27.217 46.18 26.577 46.18 26.534 c 46.18 26.487 46.148 
26.428 46.148 26.397 c h
45.668 24.538 m f
18.887 117.952 m 18.902 118.014 18.918 118.061 18.918 118.12 c 18.918 118.288
 18.637 118.549 18.469 118.549 c 18.375 118.549 17.926 118.319 17.879 117.967
 c 18.234 117.967 l 18.051 118.335 17.539 118.745 17.137 118.745 c 16.023
 118.745 14.613 117.221 14.613 115.823 c 14.613 114.862 15.387 114.131 16.102
 114.131 c 16.688 114.131 17.277 114.635 17.246 114.62 c 17.074 114.788 
l 16.875 113.979 16.766 113.585 16.766 113.553 c 16.719 113.475 16.562 112.67
 15.512 112.67 c 15.324 112.67 15 112.686 14.723 112.776 c 14.723 112.456
 l 15.016 112.534 15.297 112.944 15.297 113.112 c 15.297 113.264 15.016 
113.612 14.754 113.612 c 14.535 113.612 14.043 113.28 14.043 112.881 c 14.043
 112.487 14.582 112.135 15.527 112.135 c 16.766 112.135 17.648 113.049 17.801
 113.628 c h
17.262 115.534 m 17.199 115.272 17.027 115.151 16.812 114.967 c 16.594 
114.788 16.426 114.663 16.129 114.663 c 15.637 114.663 15.668 114.999 15.668
 115.397 c 15.668 115.866 15.898 116.901 16.16 117.389 c 16.426 117.878 
16.734 118.213 17.152 118.213 c 17.801 118.213 17.77 117.573 17.77 117.526
 c 17.77 117.483 17.742 117.42 17.742 117.389 c h
17.262 115.534 m f
101.586 90.866 m 101.586 90.881 101.418 91.139 101.293 91.139 c 101.062
 91.139 100.348 91.061 100.086 91.034 c 100.008 91.034 99.715 90.85 99.715
 90.682 c 99.715 90.561 99.992 90.409 100.133 90.409 c 100.613 90.409 100.457
 90.499 100.457 90.393 c 100.426 90.21 l 98.988 84.604 l 98.957 84.467 98.957
 84.452 98.957 84.393 c 98.957 84.163 99.328 83.967 99.422 83.967 c 99.574
 83.967 99.898 84.241 99.945 84.378 c 100.133 85.108 l 100.348 85.991 l 
100.41 86.206 100.473 86.417 100.52 86.631 c 100.535 86.694 100.613 87.01
 100.629 87.073 c 100.66 87.163 100.922 87.604 101.246 87.866 c 101.465 
88.018 101.648 88.155 102.082 88.155 c 102.5 88.155 102.438 87.971 102.438
 87.635 c 102.438 87.104 102.066 86.053 101.82 85.46 c 101.742 85.229 101.695
 85.108 101.695 84.924 c 101.695 84.467 102.223 83.967 102.688 83.967 c 
103.613 83.967 104.141 85.534 104.141 85.612 c 104.141 85.717 103.895 85.885
 103.863 85.885 c 103.754 85.885 103.582 85.686 103.539 85.534 c 103.383
 85.034 103.242 84.499 102.703 84.499 c 102.531 84.499 102.641 84.44 102.641
 84.651 c 102.641 84.897 102.719 85.139 102.809 85.354 c 102.965 85.764 
103.414 86.92 103.414 87.483 c 103.414 88.108 102.855 88.686 102.113 88.686
 c 101.492 88.686 100.891 88.338 100.52 87.897 c 100.812 87.772 l h
101.586 90.866 m f
108.793 91.139 m 108.84 91.276 108.84 91.307 108.84 91.323 c 108.84 91.428
 108.594 91.686 108.484 91.686 c 108.406 91.686 108.207 91.596 108.145 91.491
 c 104.707 82.17 l 104.66 82.045 104.66 82.003 104.66 81.987 c 104.66 81.881
 104.926 81.635 105.031 81.635 c 105.156 81.635 105.359 81.866 105.418 82.034
 c h
108.793 91.139 m f
116.988 90.12 m 117.066 90.467 116.93 90.409 117.641 90.409 c 117.902 90.409
 118.152 90.561 118.152 90.76 c 118.152 90.866 117.871 91.034 117.84 91.034
 c 117.562 91.034 116.852 91.003 116.57 91.003 c 116.293 91.003 115.598 
91.034 115.305 91.034 c 115.227 91.034 114.945 90.866 114.945 90.667 c 114.945
 90.561 115.211 90.409 115.395 90.409 c 115.41 90.409 115.598 90.409 115.766
 90.393 c 115.953 90.362 115.859 90.514 115.859 90.393 c 115.859 90.346 
115.844 90.331 115.812 90.21 c 115.273 88.003 l 112.594 88.003 l 113.137
 90.12 l 113.23 90.467 113.09 90.409 113.801 90.409 c 114.066 90.409 114.312
 90.561 114.312 90.76 c 114.312 90.866 114.035 91.034 114.004 91.034 c 113.723
 91.034 113.012 91.003 112.734 91.003 c 112.453 91.003 111.758 91.034 111.465
 91.034 c 111.387 91.034 111.094 90.866 111.094 90.667 c 111.094 90.561 
111.371 90.409 111.559 90.409 c 111.574 90.409 111.758 90.409 111.93 90.393
 c 112.098 90.362 112.023 90.514 112.023 90.393 c 112.023 90.346 112.008
 90.315 111.977 90.21 c 110.66 84.987 l 110.551 84.604 110.723 84.698 109.934
 84.698 c 109.762 84.698 109.484 84.53 109.484 84.331 c 109.484 84.225 109.793
 84.073 109.809 84.073 c 110.086 84.073 110.785 84.104 111.062 84.104 c 
111.262 84.104 111.48 84.088 111.695 84.088 c 111.914 84.088 112.129 84.073
 112.332 84.073 c 112.41 84.073 112.703 84.225 112.703 84.424 c 112.703 
84.53 112.441 84.698 112.254 84.698 c 111.883 84.698 111.773 84.53 111.773
 84.698 c 111.773 84.756 111.805 84.803 111.805 84.866 c 112.441 87.378 
l 115.102 87.378 l 114.73 85.917 114.512 85.003 114.469 84.85 c 114.375 
84.545 114.359 84.698 113.738 84.698 c 113.602 84.698 113.336 84.53 113.336
 84.331 c 113.336 84.225 113.633 84.073 113.648 84.073 c 113.926 84.073 
114.621 84.104 114.898 84.104 c 115.102 84.104 115.316 84.088 115.535 84.088
 c 115.75 84.088 115.969 84.073 116.168 84.073 c 116.246 84.073 116.539 
84.225 116.539 84.424 c 116.539 84.53 116.277 84.698 116.094 84.698 c 115.734
 84.698 115.629 84.53 115.629 84.698 c 115.629 84.756 115.645 84.803 115.66
 84.866 c h
116.988 90.12 m f
122.227 91.139 m 122.273 91.276 122.273 91.307 122.273 91.323 c 122.273
 91.428 122.023 91.686 121.914 91.686 c 121.84 91.686 121.637 91.596 121.574
 91.491 c 118.141 82.17 l 118.094 82.045 118.094 82.003 118.094 81.987 c
 118.094 81.881 118.355 81.635 118.465 81.635 c 118.59 81.635 118.789 81.866
 118.852 82.034 c h
122.227 91.139 m f
123.762 85.46 m 123.359 84.803 123.109 84.729 122.676 84.698 c 122.551 
84.682 122.289 84.514 122.289 84.331 c 122.289 84.272 122.523 84.073 122.598
 84.073 c 122.863 84.073 123.172 84.104 123.434 84.104 c 123.773 84.104 
124.117 84.073 124.426 84.073 c 124.488 84.073 124.781 84.225 124.781 84.409
 c 124.781 84.514 124.535 84.698 124.457 84.698 c 124.238 84.713 124.164
 84.62 124.164 84.866 c 124.164 84.987 124.176 84.987 124.254 85.124 c 124.969
 86.311 l 127.211 86.311 l 127.211 86.264 127.352 84.94 127.352 84.85 c 
127.352 84.561 127.012 84.698 126.809 84.698 c 126.668 84.698 126.391 84.53
 126.391 84.331 c 126.391 84.225 126.684 84.073 126.715 84.073 c 127.117
 84.073 127.535 84.104 127.938 84.104 c 128.188 84.104 128.82 84.073 129.07
 84.073 c 129.113 84.073 129.41 84.225 129.41 84.424 c 129.41 84.53 129.145
 84.698 129.008 84.698 c 128.402 84.698 128.574 84.592 128.543 84.881 c 
127.938 90.956 l 127.922 91.139 127.754 91.354 127.582 91.354 c 127.43 91.354
 127.258 91.229 127.195 91.139 c h
125.184 86.663 m 127.133 89.874 l 126.84 89.983 l 127.148 86.936 l 125.355
 86.936 l h
125.184 86.663 m f
Q Q
showpage
%%Trailer
end restore
%%EOF
