%!PS-Adobe-3.0 EPSF-3.0
%%Creator: cairo 1.14.2 (http://cairographics.org)
%%CreationDate: Fri Jun  3 14:41:53 2016
%%Pages: 1
%%DocumentData: Clean7Bit
%%LanguageLevel: 2
%%BoundingBox: 9 4 143 149
%%EndComments
%%BeginProlog
save
50 dict begin
/q { gsave } bind def
/Q { grestore } bind def
/cm { 6 array astore concat } bind def
/w { setlinewidth } bind def
/J { setlinecap } bind def
/j { setlinejoin } bind def
/M { setmiterlimit } bind def
/d { setdash } bind def
/m { moveto } bind def
/l { lineto } bind def
/c { curveto } bind def
/h { closepath } bind def
/re { exch dup neg 3 1 roll 5 3 roll moveto 0 rlineto
      0 exch rlineto 0 rlineto closepath } bind def
/S { stroke } bind def
/f { fill } bind def
/f* { eofill } bind def
/n { newpath } bind def
/W { clip } bind def
/W* { eoclip } bind def
/BT { } bind def
/ET { } bind def
/pdfmark where { pop globaldict /?pdfmark /exec load put }
    { globaldict begin /?pdfmark /pop load def /pdfmark
    /cleartomark load def end } ifelse
/BDC { mark 3 1 roll /BDC pdfmark } bind def
/EMC { mark /EMC pdfmark } bind def
/cairo_store_point { /cairo_point_y exch def /cairo_point_x exch def } def
/Tj { show currentpoint cairo_store_point } bind def
/TJ {
  {
    dup
    type /stringtype eq
    { show } { -0.001 mul 0 cairo_font_matrix dtransform rmoveto } ifelse
  } forall
  currentpoint cairo_store_point
} bind def
/cairo_selectfont { cairo_font_matrix aload pop pop pop 0 0 6 array astore
    cairo_font exch selectfont cairo_point_x cairo_point_y moveto } bind def
/Tf { pop /cairo_font exch def /cairo_font_matrix where
      { pop cairo_selectfont } if } bind def
/Td { matrix translate cairo_font_matrix matrix concatmatrix dup
      /cairo_font_matrix exch def dup 4 get exch 5 get cairo_store_point
      /cairo_font where { pop cairo_selectfont } if } bind def
/Tm { 2 copy 8 2 roll 6 array astore /cairo_font_matrix exch def
      cairo_store_point /cairo_font where { pop cairo_selectfont } if } bind def
/g { setgray } bind def
/rg { setrgbcolor } bind def
/d1 { setcachedevice } bind def
%%EndProlog
%%BeginSetup
%%EndSetup
%%Page: 1 1
%%BeginPageSetup
%%PageBoundingBox: 9 4 143 149
%%EndPageSetup
q 9 4 134 145 rectclip q
0 g
0.883136 w
1 J
1 j
[] 0.0 d
10 M q 1 0 0 0.971482 0 150.440002 cm
10.332 -149.767 m 54.324 -76.442 l S Q
33.082 36.346 m 36.141 46.741 l 28.145 39.225 l f
q 1 0 0 0.971482 0 150.440002 cm
54.324 -76.442 m 10.332 -3.124 l S Q
36.508 110.456 m 28.512 117.967 l 31.57 107.577 l f
q 1 0 0 0.971482 0 150.440002 cm
54.324 -76.442 m 55.547 -74.327 58.602 -74.327 59.82 -76.442 c 61.043 -78.561
 64.098 -78.561 65.32 -76.442 c 66.543 -74.327 69.598 -74.327 70.82 -76.442
 c 72.039 -78.561 75.094 -78.561 76.316 -76.442 c 77.539 -74.327 80.594 
-74.327 81.816 -76.442 c 83.039 -78.561 86.094 -78.561 87.313 -76.442 c 
88.535 -74.327 91.59 -74.327 92.813 -76.442 c 94.035 -78.561 97.094 -78.561
 98.316 -76.442 c 99.535 -74.327 102.59 -74.327 103.813 -76.442 c 105.035
 -78.561 108.09 -78.561 109.313 -76.442 c 110.535 -74.327 113.59 -74.327
 114.813 -76.442 c 116.031 -78.561 119.086 -78.561 120.309 -76.442 c 121.531
 -74.327 124.586 -74.327 125.809 -76.442 c 127.027 -78.561 130.082 -78.561
 131.305 -76.442 c 132.527 -74.327 135.582 -74.327 136.805 -76.442 c 138.023
 -78.561 141.086 -78.561 142.305 -76.442 c S Q
27.215 49.573 m 27.215 49.62 27.016 49.827 26.953 49.827 c 26.848 49.827
 26.324 49.409 26.309 49.366 c 26.234 49.53 25.695 49.842 25.375 49.842 
c 24.227 49.842 22.844 48.276 22.844 46.893 c 22.844 45.967 23.598 45.225
 24.316 45.225 c 24.73 45.225 25.238 45.491 25.59 45.835 c 25.297 45.94 
l 25.207 45.612 24.883 44.331 24.855 44.241 c 24.777 43.971 24.871 44.108
 24.316 44.092 c 24.195 44.092 23.918 43.928 23.918 43.733 c 23.918 43.733
 24.102 43.483 24.227 43.483 c 24.531 43.483 24.883 43.51 25.207 43.51 c
 25.527 43.51 25.883 43.483 26.219 43.483 c 26.266 43.483 26.555 43.631 
26.555 43.823 c 26.555 43.928 26.297 44.092 26.125 44.092 c 25.668 44.092
 25.836 44.003 25.836 44.077 c 25.836 44.151 25.852 44.21 25.867 44.284 
c h
24.348 45.745 m 23.75 45.745 23.887 46.311 23.887 46.475 c 23.887 46.936
 24.164 47.963 24.332 48.366 c 24.641 49.065 24.977 49.319 25.375 49.319
 c 26.02 49.319 25.973 48.694 25.973 48.635 c 25.973 48.577 25.484 46.608
 25.453 46.581 c 25.312 46.311 24.883 45.745 24.348 45.745 c h
24.348 45.745 m f
42.426 122.061 m 42.426 122.51 l 38.562 122.51 l 38.562 121.913 l 42.426
 121.913 l h
42.426 122.061 m f
41.934 120.838 m 41.934 120.885 41.734 121.092 41.672 121.092 c 41.566 
121.092 41.043 120.678 41.031 120.631 c 40.953 120.795 40.418 121.108 40.094
 121.108 c 38.945 121.108 37.562 119.545 37.562 118.159 c 37.562 117.237
 38.316 116.491 39.035 116.491 c 39.449 116.491 39.957 116.76 40.309 117.1
 c 40.016 117.206 l 39.926 116.878 39.602 115.596 39.574 115.506 c 39.496
 115.241 39.59 115.374 39.035 115.358 c 38.914 115.358 38.637 115.194 38.637
 115.003 c 38.637 115.003 38.82 114.749 38.945 114.749 c 39.25 114.749 39.602
 114.78 39.926 114.78 c 40.246 114.78 40.602 114.749 40.938 114.749 c 40.984
 114.749 41.273 114.897 41.273 115.092 c 41.273 115.194 41.016 115.358 40.844
 115.358 c 40.387 115.358 40.555 115.268 40.555 115.342 c 40.555 115.417
 40.57 115.479 40.586 115.553 c h
39.066 117.01 m 38.469 117.01 38.605 117.577 38.605 117.741 c 38.605 118.206
 38.883 119.233 39.051 119.635 c 39.359 120.335 39.695 120.588 40.094 120.588
 c 40.738 120.588 40.691 119.96 40.691 119.901 c 40.691 119.842 40.203 117.878
 40.172 117.846 c 40.031 117.577 39.602 117.01 39.066 117.01 c h
39.066 117.01 m f
100.488 69.71 m 100.504 69.737 100.52 69.784 100.52 69.842 c 100.52 69.932
 100.305 70.096 100.105 70.096 c 95.98 70.096 l 95.75 70.096 95.566 69.917
 95.504 69.737 c 94.969 68.026 l 94.938 67.979 94.938 67.92 94.938 67.889
 c 94.938 67.889 95.105 67.635 95.23 67.635 c 95.32 67.635 95.457 67.756
 95.488 67.815 c 95.887 69.006 96.242 69.483 97.758 69.483 c 98.984 69.483
 l 93.711 63.749 l 93.711 63.69 93.68 63.557 93.68 63.526 c 93.68 63.436
 93.91 63.288 94.094 63.288 c 98.34 63.288 l 98.586 63.288 98.754 63.452
 98.816 63.631 c 99.508 65.729 l 99.523 65.776 99.551 65.835 99.551 65.881
 c 99.551 65.924 99.352 66.131 99.262 66.131 c 99.168 66.131 98.984 65.94
 98.91 65.745 c 98.48 64.448 98.188 63.928 96.531 63.928 c 95.215 63.928
 l 100.473 69.631 l h
100.488 69.71 m f
102.875 70.128 m 102.922 70.229 102.938 70.292 102.938 70.335 c 102.938
 70.542 102.555 70.854 102.34 70.854 c 102.078 70.854 101.805 70.499 101.773
 70.393 c 100.867 67.503 l 100.914 67.608 100.824 67.417 100.824 67.401 
c 100.824 67.327 101.234 67.104 101.297 67.104 c 101.344 67.104 101.543 
67.264 101.59 67.37 c h
102.875 70.128 m f
Q Q
showpage
%%Trailer
end restore
%%EOF
